sp	int1	int2	int3	int4	int5	int6	int7	int8
Aardonyx	0	0	0	0	0	1	0	0
Abelisaurus	0	1	0	0	0	0	0	0
Abrictosaurus	0	0	0	0	0	1	0	0
Abrosaurus	0	0	0	0	1	0	0	0
Acantholipan	0	1	0	0	0	0	0	0
Acanthopholis	0	1	0	0	0	0	0	0
Achelousaurus	0	2	0	0	0	0	0	0
Acheroraptor	0	1	0	0	0	0	0	0
Achillesaurus	0	1	0	0	0	0	0	0
Achillobator	0	1	0	0	0	0	0	0
Acristavus	0	2	0	0	0	0	0	0
Acrocanthosaurus	0	0	7	0	0	0	0	0
Acrotholus	0	1	0	0	0	0	0	0
Adamantisaurus	0	1	0	0	0	0	0	0
Adasaurus	0	1	0	0	0	0	0	0
Adelolophus	0	1	0	0	0	0	0	0
Aegyptosaurus	0	4	0	0	0	0	0	0
Aeolosaurus	0	6	0	0	0	0	0	0
Aepyornithomimus	0	1	0	0	0	0	0	0
Aerosteon	0	1	0	0	0	0	0	0
Agilisaurus	0	0	0	0	1	0	0	0
Agnosphitys	0	0	0	0	0	0	1	0
Agujaceratops	0	7	0	0	0	0	0	0
Ahshislepelta	0	1	0	0	0	0	0	0
Ajancingenia	0	1	0	0	0	0	0	0
Ajkaceratops	0	1	0	0	0	0	0	0
Akainacephalus	0	1	0	0	0	0	0	0
Alamitornis	0	1	0	0	0	0	0	0
Alamosaurus	0	27	0	0	0	0	0	0
Alaskacephale	0	1	0	0	0	0	0	0
Albalophosaurus	0	0	1	0	0	0	0	0
Albertaceratops	0	2	0	0	0	0	0	0
Albertadromeus	0	1	0	0	0	0	0	0
Albertonykus	0	1	0	0	0	0	0	0
Albertosaurus	0	24	0	0	0	0	0	0
Albinykus	0	1	0	0	0	0	0	0
Alcovasaurus	0	0	0	2	0	0	0	0
Alectrosaurus	0	22	0	0	0	0	0	0
Alethoalaornis	0	0	1	0	0	0	0	0
Aletopelta	0	1	0	0	0	0	0	0
Alexornis	0	1	0	0	0	0	0	0
Alioramus	0	3	0	0	0	0	0	0
Allosaurus	0	0	0	110	0	0	0	0
Alnashetri	0	1	0	0	0	0	0	0
Altirhinus	0	0	1	0	0	0	0	0
Alvarezsaurus	0	1	0	0	0	0	0	0
Alwalkeria	0	0	0	0	0	0	1	0
Alxasaurus	0	0	1	0	0	0	0	0
Amargasaurus	0	0	1	0	0	0	0	0
Amargatitanis	0	0	1	0	0	0	0	0
Amazonsaurus	0	0	1	0	0	0	0	0
Ambiortus	0	0	1	0	0	0	0	0
Ammosaurus	0	0	0	0	0	3	0	0
Ampelosaurus	0	5	0	0	0	0	0	0
Amphicoelias	0	0	0	6	0	0	0	0
Amtocephale	0	1	0	0	0	0	0	0
Amtosaurus	0	1	0	0	0	0	0	0
Amurosaurus	0	1	0	0	0	0	0	0
Anabisetia	0	2	0	0	0	0	0	0
Anasazisaurus	0	1	0	0	0	0	0	0
Anatalavis	0	1	0	0	0	0	0	0
Anatotitan	0	3	0	0	0	0	0	0
Anchiceratops	0	7	0	0	0	0	0	0
Anchiornis	0	0	0	1	0	0	0	0
Anchisaurus	0	0	0	0	0	4	0	0
Andesaurus	0	1	0	0	0	0	0	0
Angaturama	0	0	1	0	0	0	0	0
Angolatitan	0	1	0	0	0	0	0	0
Angulomastacator	0	1	0	0	0	0	0	0
Aniksosaurus	0	1	0	0	0	0	0	0
Animantarx	0	0	1	0	0	0	0	0
Ankylosaurus	0	14	0	0	0	0	0	0
Anodontosaurus	0	13	0	0	0	0	0	0
Anomalipes	0	1	0	0	0	0	0	0
Anoplosaurus	0	1	0	0	0	0	0	0
Anserimimus	0	1	0	0	0	0	0	0
Antarctopelta	0	1	0	0	0	0	0	0
Antarctosaurus	0	6	0	0	0	0	0	0
Antetonitrus	0	0	0	0	0	0	1	0
Anzu	0	3	0	0	0	0	0	0
Aoniraptor	0	1	0	0	0	0	0	0
Aorun	0	0	0	0	1	0	0	0
Apatoraptor	0	1	0	0	0	0	0	0
Apatornis	0	1	0	0	0	0	0	0
Apatosaurus	0	0	0	49	0	0	0	0
Appalachiosaurus	0	1	0	0	0	0	0	0
Apsaravis	0	1	0	0	0	0	0	0
Aquilops	0	0	1	0	0	0	0	0
Aragosaurus	0	0	1	0	0	0	0	0
Aralosaurus	0	1	0	0	0	0	0	0
Archaeoceratops	0	0	3	0	0	0	0	0
Archaeodontosaurus	0	0	0	0	1	0	0	0
Archaeopteryx	0	0	0	8	0	0	0	0
Archaeorhynchus	0	0	2	0	0	0	0	0
Archaeornithoides	0	1	0	0	0	0	0	0
Archaeornithomimus	0	4	0	0	0	0	0	0
Archaeornithura	0	0	1	0	0	0	0	0
Archaeovolans	0	0	1	0	0	0	0	0
Arcovenator	0	2	0	0	0	0	0	0
Arcusaurus	0	0	0	0	0	1	0	0
Arenysaurus	0	1	0	0	0	0	0	0
Argentinosaurus	0	1	0	0	0	0	0	0
Argyrosaurus	0	1	0	0	0	0	0	0
Arkansaurus	0	0	1	0	0	0	0	0
Arrhinoceratops	0	2	0	0	0	0	0	0
Asiaceratops	0	8	0	0	0	0	0	0
Asiahesperornis	0	1	0	0	0	0	0	0
Asylosaurus	0	0	0	0	0	0	1	0
Atlasaurus	0	0	0	0	1	0	0	0
Atlascopcosaurus	0	0	4	0	0	0	0	0
Atrociraptor	0	5	0	0	0	0	0	0
Atsinganosaurus	0	1	0	0	0	0	0	0
Aucasaurus	0	1	0	0	0	0	0	0
Augustynolophus	0	2	0	0	0	0	0	0
Auroraceratops	0	0	1	0	0	0	0	0
Australodocus	0	0	0	1	0	0	0	0
Australovenator	0	1	0	0	0	0	0	0
Austrocheirus	0	1	0	0	0	0	0	0
Austroposeidon	0	1	0	0	0	0	0	0
Austroraptor	0	2	0	0	0	0	0	0
Austrosaurus	0	0	1	0	0	0	0	0
Avaceratops	0	1	0	0	0	0	0	0
Aviatyrannis	0	0	0	2	0	0	0	0
Avimimus	0	7	0	0	0	0	0	0
Avisaurus	0	3	0	0	0	0	0	0
Bactrosaurus	0	7	0	0	0	0	0	0
Bagaceratops	0	10	0	0	0	0	0	0
Bagaraatan	0	1	0	0	0	0	0	0
Bagualosaurus	0	0	0	0	0	0	1	0
Bahariasaurus	0	3	0	0	0	0	0	0
Balaur	0	2	0	0	0	0	0	0
Balochisaurus	0	4	0	0	0	0	0	0
Bambiraptor	0	2	0	0	0	0	0	0
Banji	0	1	0	0	0	0	0	0
Baotianmansaurus	0	1	0	0	0	0	0	0
Baptornis	0	10	0	0	0	0	0	0
Barapasaurus	0	0	0	0	0	2	0	0
Barilium	0	0	5	0	0	0	0	0
Barosaurus	0	0	0	19	0	0	0	0
Barrosasaurus	0	1	0	0	0	0	0	0
Barsboldia	0	1	0	0	0	0	0	0
Baryonyx	0	0	7	0	0	0	0	0
Batyrosaurus	0	1	0	0	0	0	0	0
Baurutitan	0	1	0	0	0	0	0	0
Bauxitornis	0	1	0	0	0	0	0	0
Becklespinax	0	0	1	0	0	0	0	0
Beibeilong	0	1	0	0	0	0	0	0
Beipiaosaurus	0	0	1	0	0	0	0	0
Beishanlong	0	0	1	0	0	0	0	0
Bellulia	0	0	1	0	0	0	0	0
Bellusaurus	0	0	0	1	0	0	0	0
Berberosaurus	0	0	0	0	0	1	0	0
Bicentenaria	0	1	0	0	0	0	0	0
Bissektipelta	0	1	0	0	0	0	0	0
Bistahieversor	0	4	0	0	0	0	0	0
Blasisaurus	0	1	0	0	0	0	0	0
Blikanasaurus	0	0	0	0	0	0	2	0
Bohaiornis	0	0	2	0	0	0	0	0
Bolong	0	0	2	0	0	0	0	0
Boluochia	0	0	1	0	0	0	0	0
Bonapartenykus	0	2	0	0	0	0	0	0
Bonapartesaurus	0	1	0	0	0	0	0	0
Bonatitan	0	1	0	0	0	0	0	0
Bonitasaura	0	2	0	0	0	0	0	0
Borealopelta	0	0	1	0	0	0	0	0
Borealosaurus	0	0	1	0	0	0	0	0
Boreonykus	0	2	0	0	0	0	0	0
Borogovia	0	1	0	0	0	0	0	0
Brachiosaurus	0	0	0	16	0	0	0	0
Brachyceratops	0	4	0	0	0	0	0	0
Brachylophosaurus	0	7	0	0	0	0	0	0
Brachytrachelopan	0	0	0	1	0	0	0	0
Brasilotitan	0	1	0	0	0	0	0	0
Bravoceratops	0	1	0	0	0	0	0	0
Brodavis	0	4	0	0	0	0	0	0
Brontosaurus	0	0	0	21	0	0	0	0
Buitreraptor	0	1	0	0	0	0	0	0
Burianosaurus	0	1	0	0	0	0	0	0
Buriolestes	0	0	0	0	0	0	1	0
Byronosaurus	0	3	0	0	0	0	0	0
Caenagnathasia	0	2	0	0	0	0	0	0
Caenagnathus	0	7	0	0	0	0	0	0
Caihong	0	0	0	1	0	0	0	0
Callovosaurus	0	0	0	0	1	0	0	0
Camarasaurus	0	0	0	118	0	0	0	0
Camarillasaurus	0	0	1	0	0	0	0	0
Camelotia	0	0	0	0	0	0	2	0
Camptodontus	0	0	1	0	0	0	0	0
Camptosaurus	0	0	0	34	0	0	0	0
Canadaga	0	2	0	0	0	0	0	0
Canardia	0	1	0	0	0	0	0	0
Carcharodontosaurus	0	14	8	0	0	0	0	0
Cardiodon	0	0	0	0	1	0	0	0
Carnotaurus	0	1	0	0	0	0	0	0
Caseosaurus	0	0	0	0	0	0	2	0
Cathartesaura	0	1	0	0	0	0	0	0
Cathayornis	0	0	3	0	0	0	0	0
Caudipteryx	0	0	2	0	0	0	0	0
Cedarosaurus	0	0	2	0	0	0	0	0
Cedarpelta	0	0	3	0	0	0	0	0
Cedrorestes	0	0	1	0	0	0	0	0
Centrosaurus	0	46	0	0	0	0	0	0
Ceramornis	0	1	0	0	0	0	0	0
Cerasinops	0	3	0	0	0	0	0	0
Ceratonykus	0	1	0	0	0	0	0	0
Ceratosaurus	0	0	0	16	0	0	0	0
Cerebavis	0	1	0	0	0	0	0	0
Cetiosauriscus	0	0	0	0	1	0	0	0
Cetiosaurus	0	0	0	0	23	0	0	0
Changchengornis	0	0	1	0	0	0	0	0
Changmaornis	0	0	1	0	0	0	0	0
Changyuraptor	0	0	1	0	0	0	0	0
Changzuiornis	0	0	1	0	0	0	0	0
Chaoyangia	0	0	1	0	0	0	0	0
Charonosaurus	0	1	0	0	0	0	0	0
Chasmosaurus	0	18	0	0	0	0	0	0
Chilantaisaurus	0	2	0	0	0	0	0	0
Chilesaurus	0	0	0	1	0	0	0	0
Chindesaurus	0	0	0	0	0	0	7	0
Chinshakiangosaurus	0	0	0	0	0	1	0	0
Chirostenotes	0	26	0	0	0	0	0	0
Choconsaurus	0	1	0	0	0	0	0	0
Chongmingia	0	0	1	0	0	0	0	0
Chuandongocoelurus	0	0	0	0	1	0	0	0
Chuanqilong	0	0	1	0	0	0	0	0
Chungkingosaurus	0	0	0	4	0	0	0	0
Chupkaornis	0	1	0	0	0	0	0	0
Chuxiongosaurus	0	0	0	0	0	1	0	0
Cimolopteryx	0	5	0	0	0	0	0	0
Citipati	0	2	0	0	0	0	0	0
Claosaurus	0	3	0	0	0	0	0	0
Coahuilaceratops	0	1	0	0	0	0	0	0
Coelophysis	0	0	0	0	0	9	24	0
Coelurus	0	0	0	9	0	0	0	0
Colepiocephale	0	4	0	0	0	0	0	0
Coloradisaurus	0	0	0	0	0	0	2	0
Comahuesaurus	0	0	1	0	0	0	0	0
Compsognathus	0	0	0	3	0	0	0	0
Concavenator	0	0	1	0	0	0	0	0
Conchoraptor	0	2	0	0	0	0	0	0
Concornis	0	0	2	0	0	0	0	0
Condorraptor	0	0	0	0	1	0	0	0
Confuciusornis	0	0	16	0	0	0	0	0
Coronosaurus	0	2	0	0	0	0	0	0
Corythoraptor	0	1	0	0	0	0	0	0
Corythosaurus	0	25	0	0	0	0	0	0
Craspedodon	0	1	0	0	0	0	0	0
Cratoavis	0	0	1	0	0	0	0	0
Crichtonsaurus	0	2	0	0	0	0	0	0
Cruralispennia	0	0	1	0	0	0	0	0
Cruxicheiros	0	0	0	0	1	0	0	0
Cryolophosaurus	0	0	0	0	0	1	0	0
Cumnoria	0	0	0	1	0	0	0	0
Dacentrurus	0	0	0	12	0	0	0	0
Daemonosaurus	0	0	0	0	0	0	1	0
Dahalokely	0	1	0	0	0	0	0	0
Dakotadon	0	0	1	0	0	0	0	0
Dakotaraptor	0	1	0	0	0	0	0	0
Dalianraptor	0	0	1	0	0	0	0	0
Daliansaurus	0	0	1	0	0	0	0	0
Dalingheornis	0	0	1	0	0	0	0	0
Dapingfangornis	0	0	2	0	0	0	0	0
Dashanpusaurus	0	0	0	0	1	0	0	0
Daspletosaurus	0	15	0	0	0	0	0	0
Datanglong	0	0	1	0	0	0	0	0
Datonglong	0	1	0	0	0	0	0	0
Datousaurus	0	0	0	0	1	0	0	0
Deinocheirus	0	2	0	0	0	0	0	0
Deinonychus	0	0	41	0	0	0	0	0
Delapparentia	0	0	2	0	0	0	0	0
Deltadromeus	0	5	0	0	0	0	0	0
Demandasaurus	0	0	1	0	0	0	0	0
Diabloceratops	0	2	0	0	0	0	0	0
Diamantinasaurus	0	2	0	0	0	0	0	0
Dicraeosaurus	0	0	0	19	0	0	0	0
Dilong	0	0	2	0	0	0	0	0
Dilophosaurus	0	0	0	0	0	7	0	0
Diluvicursor	0	0	1	0	0	0	0	0
Dingavis	0	0	1	0	0	0	0	0
Diplodocus	0	0	0	59	0	0	0	0
Dongbeititan	0	0	1	0	0	0	0	0
Dongyangosaurus	0	1	0	0	0	0	0	0
Draconyx	0	0	0	2	0	0	0	0
Dracopelta	0	0	0	1	0	0	0	0
Dracoraptor	0	0	0	0	0	1	0	0
Dracovenator	0	0	0	0	0	2	0	0
Dreadnoughtus	0	1	0	0	0	0	0	0
Drinker	0	0	0	8	0	0	0	0
Dromaeosauroides	0	0	1	0	0	0	0	0
Dromaeosaurus	0	42	0	0	0	0	0	0
Drusilasaura	0	1	0	0	0	0	0	0
Dryosaurus	0	0	0	24	0	0	0	0
Dryptosaurus	0	14	0	0	0	0	0	0
Dubreuillosaurus	0	0	0	0	1	0	0	0
Dunhuangia	0	0	1	0	0	0	0	0
Duriavenator	0	0	0	0	1	0	0	0
Dyoplosaurus	0	1	0	0	0	0	0	0
Dysalotosaurus	0	0	0	1	0	0	0	0
Dyslocosaurus	0	0	0	1	0	0	0	0
Dystrophaeus	0	0	0	1	0	0	0	0
Echinodon	0	0	4	0	0	0	0	0
Edmontonia	0	21	0	0	0	0	0	0
Edmontosaurus	0	68	0	0	0	0	0	0
Efraasia	0	0	0	0	0	0	5	0
Einiosaurus	0	3	0	0	0	0	0	0
Ekrixinatosaurus	0	1	0	0	0	0	0	0
Elaltitan	0	1	0	0	0	0	0	0
Elaphrosaurus	0	0	0	4	0	0	0	0
Elbretornis	0	2	0	0	0	0	0	0
Elmisaurus	0	1	0	0	0	0	0	0
Elopteryx	0	1	0	0	0	0	0	0
Elrhazosaurus	0	0	1	0	0	0	0	0
Elsornis	0	1	0	0	0	0	0	0
Emausaurus	0	0	0	0	0	1	0	0
Enaliornis	0	0	2	0	0	0	0	0
Enantiophoenix	0	1	0	0	0	0	0	0
Enantiornis	0	2	0	0	0	0	0	0
Eoabelisaurus	0	0	0	0	1	0	0	0
Eoalulavis	0	0	1	0	0	0	0	0
Eocarcharia	0	0	2	0	0	0	0	0
Eocathayornis	0	0	1	0	0	0	0	0
Eoconfuciusornis	0	0	1	0	0	0	0	0
Eocursor	0	0	0	0	0	1	0	0
Eodromaeus	0	0	0	0	0	0	1	0
Eoenantiornis	0	0	1	0	0	0	0	0
Eogranivora	0	0	1	0	0	0	0	0
Eolambia	0	0	1	0	0	0	0	0
Eopengornis	0	0	1	0	0	0	0	0
Eoraptor	0	0	0	0	0	0	1	0
Eotrachodon	0	1	0	0	0	0	0	0
Eotriceratops	0	1	0	0	0	0	0	0
Eotyrannus	0	0	1	0	0	0	0	0
Eousdryosaurus	0	0	0	1	0	0	0	0
Epachthosaurus	0	3	0	0	0	0	0	0
Epichirostenotes	0	1	0	0	0	0	0	0
Epidendrosaurus	0	0	0	0	1	0	0	0
Epidexipteryx	0	0	0	0	1	0	0	0
Equijubus	0	0	1	0	0	0	0	0
Erketu	0	2	0	0	0	0	0	0
Erliansaurus	0	1	0	0	0	0	0	0
Erlikosaurus	0	1	0	0	0	0	0	0
Eshanosaurus	0	0	0	0	0	1	0	0
Eucnemesaurus	0	0	0	0	0	0	4	0
Euhelopus	0	0	2	0	0	0	0	0
Euoplocephalus	0	17	0	0	0	0	0	0
Europasaurus	0	0	0	2	0	0	0	0
Europatitan	0	0	1	0	0	0	0	0
Europelta	0	0	1	0	0	0	0	0
Eustreptospondylus	0	0	0	0	1	0	0	0
Evgenavis	0	0	1	0	0	0	0	0
Falcarius	0	0	2	0	0	0	0	0
Feitianius	0	0	1	0	0	0	0	0
Fenestrosaurus	0	1	0	0	0	0	0	0
Ferganasaurus	0	0	0	0	1	0	0	0
Ferganocephale	0	0	0	0	3	0	0	0
Flexomornis	0	1	0	0	0	0	0	0
Fortunguavis	0	0	1	0	0	0	0	0
Fosterovenator	0	0	0	1	0	0	0	0
Fruitadens	0	0	0	3	0	0	0	0
Fukuiraptor	0	0	2	0	0	0	0	0
Fukuisaurus	0	0	1	0	0	0	0	0
Fukuititan	0	0	1	0	0	0	0	0
Fukuivenator	0	0	1	0	0	0	0	0
Fumicollis	0	1	0	0	0	0	0	0
Futalognkosaurus	0	1	0	0	0	0	0	0
Galeamopus	0	0	0	4	0	0	0	0
Gallimimus	0	24	0	0	0	0	0	0
Gallornis	0	0	1	0	0	0	0	0
Galvesaurus	0	0	0	1	0	0	0	0
Gannansaurus	0	1	0	0	0	0	0	0
Gansus	0	0	2	0	0	0	0	0
Ganzhousaurus	0	1	0	0	0	0	0	0
Gargantuavis	0	5	0	0	0	0	0	0
Gargoyleosaurus	0	0	0	1	0	0	0	0
Garudimimus	0	1	0	0	0	0	0	0
Gasosaurus	0	0	0	0	1	0	0	0
Gasparinisaura	0	3	0	0	0	0	0	0
Gastonia	0	0	3	0	0	0	0	0
Geminiraptor	0	0	1	0	0	0	0	0
Genusaurus	0	0	1	0	0	0	0	0
Genyodectes	0	0	1	0	0	0	0	0
Gideonmantellia	0	0	1	0	0	0	0	0
Giganotosaurus	0	3	0	0	0	0	0	0
Gigantoraptor	0	1	0	0	0	0	0	0
Gigantspinosaurus	0	0	0	1	0	0	0	0
Gilmoreosaurus	0	2	0	0	0	0	0	0
Giraffatitan	0	0	0	42	0	0	0	0
Glacialisaurus	0	0	0	0	0	1	0	0
Glyptodontopelta	0	8	0	0	0	0	0	0
Gobiceratops	0	1	0	0	0	0	0	0
Gobipipus	0	1	0	0	0	0	0	0
Gobipteryx	0	6	0	0	0	0	0	0
Gobisaurus	0	1	0	0	0	0	0	0
Gobititan	0	0	1	0	0	0	0	0
Gobivenator	0	1	0	0	0	0	0	0
Gojirasaurus	0	0	0	0	0	0	1	0
Gondwanatitan	0	2	0	0	0	0	0	0
Gongpoquansaurus	0	0	1	0	0	0	0	0
Gongxianosaurus	0	0	0	0	0	1	0	0
Gorgosaurus	0	17	0	0	0	0	0	0
Goyocephale	0	1	0	0	0	0	0	0
Grabauornis	0	0	1	0	0	0	0	0
Graciliceratops	0	1	0	0	0	0	0	0
Graciliraptor	0	0	1	0	0	0	0	0
Gracilornis	0	0	1	0	0	0	0	0
Graculavus	0	2	0	0	0	0	0	0
Gravitholus	0	1	0	0	0	0	0	0
Gresslyosaurus	0	0	0	0	0	0	2	0
Gruipeda	0	0	0	0	0	2	1	0
Gryphoceratops	0	1	0	0	0	0	0	0
Gryposaurus	0	19	0	0	0	0	0	0
Guaibasaurus	0	0	0	0	0	0	3	0
Gualicho	0	1	0	0	0	0	0	0
Guanlong	0	0	0	1	0	0	0	0
Gurilynia	0	1	0	0	0	0	0	0
Hadrosaurus	0	5	0	0	0	0	0	0
Haestasaurus	0	0	1	0	0	0	0	0
Hagryphus	0	1	0	0	0	0	0	0
Halimornis	0	1	0	0	0	0	0	0
Halszkaraptor	0	1	0	0	0	0	0	0
Hanssuesia	0	2	0	0	0	0	0	0
Haplocanthosaurus	0	0	0	7	0	0	0	0
Haplocheirus	0	0	0	1	0	0	0	0
Harpymimus	0	0	1	0	0	0	0	0
Haya	0	1	0	0	0	0	0	0
Herrerasaurus	0	0	0	0	0	0	10	0
Hesperonychus	0	4	0	0	0	0	0	0
Hesperornis	0	57	0	0	0	0	0	0
Hesperosaurus	0	0	0	5	0	0	0	0
Heterodontosaurus	0	0	0	0	0	4	0	0
Hexing	0	0	1	0	0	0	0	0
Hexinlusaurus	0	0	0	0	1	0	0	0
Heyuannia	0	1	0	0	0	0	0	0
Hippodraco	0	0	1	0	0	0	0	0
Histriasaurus	0	0	1	0	0	0	0	0
Holbotia	0	0	1	0	0	0	0	0
Hollanda	0	1	0	0	0	0	0	0
Homalocephale	0	2	0	0	0	0	0	0
Hongshanornis	0	0	2	0	0	0	0	0
Hoplitosaurus	0	0	2	0	0	0	0	0
Horezmavis	0	1	0	0	0	0	0	0
Houornis	0	0	1	0	0	0	0	0
Huabeisaurus	0	1	0	0	0	0	0	0
Hualianceratops	0	0	0	1	0	0	0	0
Huanansaurus	0	1	0	0	0	0	0	0
Huaxiagnathus	0	0	1	0	0	0	0	0
Huaxiaosaurus	0	1	0	0	0	0	0	0
Huayangosaurus	0	0	0	0	1	0	0	0
Huehuecanauhtlus	0	2	0	0	0	0	0	0
Hulsanpes	0	1	0	0	0	0	0	0
Hungarosaurus	0	2	0	0	0	0	0	0
Huoshanornis	0	0	1	0	0	0	0	0
Hylaeosaurus	0	0	10	0	0	0	0	0
Hypacrosaurus	0	30	0	0	0	0	0	0
Hypselosaurus	0	18	0	0	0	0	0	0
Hypselospinus	0	0	4	0	0	0	0	0
Hypsilophodon	0	0	8	0	0	0	0	0
Iaceornis	0	1	0	0	0	0	0	0
Iberomesornis	0	0	2	0	0	0	0	0
Ichthyornis	0	17	0	0	0	0	0	0
Ichthyovenator	0	0	1	0	0	0	0	0
Ignavusaurus	0	0	0	0	0	1	0	0
Ignotornis	0	0	1	0	0	0	0	0
Iguanacolossus	0	0	1	0	0	0	0	0
Iguanodon	0	0	116	0	0	0	0	0
Ilerdopteryx	0	0	1	0	0	0	0	0
Ilokelesia	0	1	0	0	0	0	0	0
Incisivosaurus	0	0	4	0	0	0	0	0
Indosaurus	0	1	0	0	0	0	0	0
Indosuchus	0	1	0	0	0	0	0	0
Ingenia	0	1	0	0	0	0	0	0
Intiornis	0	1	0	0	0	0	0	0
Invictarx	0	1	0	0	0	0	0	0
Irritator	0	0	1	0	0	0	0	0
Isaberrysaura	0	0	0	0	1	0	0	0
Isanosaurus	0	0	0	0	0	0	1	0
Ischioceratops	0	1	0	0	0	0	0	0
Isisaurus	0	2	0	0	0	0	0	0
Itemirus	0	6	0	0	0	0	0	0
Iteravis	0	0	1	0	0	0	0	0
Jainosaurus	0	1	0	0	0	0	0	0
Jaklapallisaurus	0	0	0	0	0	0	2	0
Janenschia	0	0	0	7	0	0	0	0
Jaxartosaurus	0	1	0	0	0	0	0	0
Jeholornis	0	0	4	0	0	0	0	0
Jeholosaurus	0	0	1	0	0	0	0	0
Jeyawati	0	1	0	0	0	0	0	0
Jianchangornis	0	0	1	0	0	0	0	0
Jianchangosaurus	0	0	1	0	0	0	0	0
Jiangjunosaurus	0	0	0	1	0	0	0	0
Jiangshanosaurus	0	0	1	0	0	0	0	0
Jiangxisaurus	0	1	0	0	0	0	0	0
Jibeinia	0	0	2	0	0	0	0	0
Jinfengopteryx	0	0	1	0	0	0	0	0
Jingshanosaurus	0	0	0	0	0	1	0	0
Jintasaurus	0	0	1	0	0	0	0	0
Jinyunpelta	0	0	1	0	0	0	0	0
Jinzhouornis	0	0	2	0	0	0	0	0
Jinzhousaurus	0	0	1	0	0	0	0	0
Jiuquanornis	0	0	1	0	0	0	0	0
Jixiangornis	0	0	1	0	0	0	0	0
Judiceratops	0	1	0	0	0	0	0	0
Judinornis	0	1	0	0	0	0	0	0
Juehuaornis	0	0	1	0	0	0	0	0
Juratyrant	0	0	0	1	0	0	0	0
Juravenator	0	0	0	1	0	0	0	0
Kaatedocus	0	0	0	1	0	0	0	0
Karongasaurus	0	0	2	0	0	0	0	0
Katepensaurus	0	1	0	0	0	0	0	0
Kayentavenator	0	0	0	0	0	1	0	0
Kazaklambia	0	1	0	0	0	0	0	0
Kelmayisaurus	0	0	1	0	0	0	0	0
Kentrosaurus	0	0	0	27	0	0	0	0
Kerberosaurus	0	1	0	0	0	0	0	0
Khaan	0	2	0	0	0	0	0	0
Khetranisaurus	0	1	0	0	0	0	0	0
Kileskus	0	0	0	0	2	0	0	0
Kinnareemimus	0	0	1	0	0	0	0	0
Kizylkumavis	0	1	0	0	0	0	0	0
Klamelisaurus	0	0	0	0	1	0	0	0
Kol	0	1	0	0	0	0	0	0
Koreaceratops	0	0	1	0	0	0	0	0
Koreanosaurus	0	2	0	0	0	0	0	0
Koshisaurus	0	0	1	0	0	0	0	0
Kosmoceratops	0	2	0	0	0	0	0	0
Kotasaurus	0	0	0	0	0	2	0	0
Kritosaurus	0	28	0	0	0	0	0	0
Kryptops	0	0	1	0	0	0	0	0
Kundurosaurus	0	1	0	0	0	0	0	0
Kuszholia	0	2	0	0	0	0	0	0
Labocania	0	1	0	0	0	0	0	0
Laevisuchus	0	1	0	0	0	0	0	0
Laiyangosaurus	0	1	0	0	0	0	0	0
Lamaceratops	0	1	0	0	0	0	0	0
Lamarqueavis	0	3	0	0	0	0	0	0
Lambeosaurus	0	19	0	0	0	0	0	0
Lametasaurus	0	1	0	0	0	0	0	0
Lamplughsaura	0	0	0	0	0	4	0	0
Lanzhousaurus	0	0	1	0	0	0	0	0
Laornis	0	1	0	0	0	0	0	0
Lapampasaurus	0	1	0	0	0	0	0	0
Laplatasaurus	0	5	0	0	0	0	0	0
Lapparentosaurus	0	0	0	0	1	0	0	0
Laquintasaura	0	0	0	0	0	1	0	0
Largirostrornis	0	0	1	0	0	0	0	0
Latirhinus	0	1	0	0	0	0	0	0
Leaellynasaura	0	0	3	0	0	0	0	0
Lectavis	0	1	0	0	0	0	0	0
Ledumahadi	0	0	0	0	0	1	0	0
Leinkupal	0	0	1	0	0	0	0	0
Leonerasaurus	0	0	0	0	0	1	0	0
Leptoceratops	0	7	0	0	0	0	0	0
Leptorhynchos	0	6	0	0	0	0	0	0
Leshansaurus	0	0	0	1	0	0	0	0
Lesothosaurus	0	0	0	0	0	5	0	0
Lessemsaurus	0	0	0	0	0	0	1	0
Levnesovia	0	3	0	0	0	0	0	0
Lexovisaurus	0	0	0	1	0	0	0	0
Liaoceratops	0	0	2	0	0	0	0	0
Liaoningornis	0	0	1	0	0	0	0	0
Liaoningosaurus	0	0	1	0	0	0	0	0
Liaoningotitan	0	0	1	0	0	0	0	0
Ligabueino	0	0	1	0	0	0	0	0
Ligabuesaurus	0	0	1	0	0	0	0	0
Liliensternus	0	0	0	0	0	0	5	0
Limaysaurus	0	5	0	0	0	0	0	0
Limenavis	0	1	0	0	0	0	0	0
Limusaurus	0	0	0	3	0	0	0	0
Linhenykus	0	2	0	0	0	0	0	0
Linheraptor	0	1	0	0	0	0	0	0
Linhevenator	0	1	0	0	0	0	0	0
Linyiornis	0	0	1	0	0	0	0	0
Lirainosaurus	0	9	0	0	0	0	0	0
Lohuecotitan	0	1	0	0	0	0	0	0
Lonchodytes	0	1	0	0	0	0	0	0
Longchengornis	0	0	1	0	0	0	0	0
Longicrusavis	0	0	1	0	0	0	0	0
Longipteryx	0	0	3	0	0	0	0	0
Longirostravis	0	0	1	0	0	0	0	0
Longusunguis	0	0	1	0	0	0	0	0
Lophorhothon	0	1	0	0	0	0	0	0
Loricatosaurus	0	0	0	0	2	0	0	0
Lourinhanosaurus	0	0	0	2	0	0	0	0
Lourinhasaurus	0	0	0	10	0	0	0	0
Lucianovenator	0	0	0	0	0	0	1	0
Lufengosaurus	0	0	0	0	0	33	0	0
Luoyanggia	0	1	0	0	0	0	0	0
Lurdusaurus	0	0	1	0	0	0	0	0
Lusotitan	0	0	0	1	0	0	0	0
Lycorhinus	0	0	0	0	0	5	0	0
Lythronax	0	1	0	0	0	0	0	0
Maaqwi	0	1	0	0	0	0	0	0
Machairasaurus	0	1	0	0	0	0	0	0
Machairoceratops	0	1	0	0	0	0	0	0
Macrogryphosaurus	0	1	0	0	0	0	0	0
Magnapaulia	0	4	0	0	0	0	0	0
Magnirostris	0	1	0	0	0	0	0	0
Magnosaurus	0	0	0	0	1	0	0	0
Magyarosaurus	0	11	0	0	0	0	0	0
Mahakala	0	1	0	0	0	0	0	0
Maiasaura	0	7	0	0	0	0	0	0
Majungasaurus	0	24	0	0	0	0	0	0
Malarguesaurus	0	2	0	0	0	0	0	0
Malawisaurus	0	0	8	0	0	0	0	0
Mamenchisaurus	0	0	0	15	0	0	0	0
Mandschurosaurus	0	1	2	0	0	0	0	0
Mansourasaurus	0	1	0	0	0	0	0	0
Mantellisaurus	0	0	14	0	0	0	0	0
Mapusaurus	0	1	0	0	0	0	0	0
Marisaurus	0	6	0	0	0	0	0	0
Marshosaurus	0	0	0	3	0	0	0	0
Martharaptor	0	0	1	0	0	0	0	0
Martinavis	0	6	0	0	0	0	0	0
Masiakasaurus	0	28	0	0	0	0	0	0
Massospondylus	0	0	0	0	0	32	0	0
Maxakalisaurus	0	1	0	0	0	0	0	0
Medusaceratops	0	1	0	0	0	0	0	0
Megalosaurus	0	0	0	1	2	0	0	0
Megaraptor	0	3	0	0	0	0	0	0
Mei	0	0	2	0	0	0	0	0
Melanorosaurus	0	0	0	0	0	0	9	0
Mendozasaurus	0	1	0	0	0	0	0	0
Mercuriceratops	0	2	0	0	0	0	0	0
Metriacanthosaurus	0	0	0	1	0	0	0	0
Micropachycephalosaurus	0	1	0	0	0	0	0	0
Microraptor	0	0	9	0	0	0	0	0
Microvenator	0	0	4	0	0	0	0	0
Mierasaurus	0	0	1	0	0	0	0	0
Minmi	0	0	3	0	0	0	0	0
Miragaia	0	0	0	1	0	0	0	0
Mirischia	0	0	1	0	0	0	0	0
Moabosaurus	0	0	2	0	0	0	0	0
Mochlodon	0	4	0	0	0	0	0	0
Mojoceratops	0	2	0	0	0	0	0	0
Monoclonius	0	15	0	0	0	0	0	0
Monolophosaurus	0	0	0	0	1	0	0	0
Mononykus	0	5	0	0	0	0	0	0
Montanoceratops	0	3	0	0	0	0	0	0
Morelladon	0	0	1	0	0	0	0	0
Morrosaurus	0	1	0	0	0	0	0	0
Mosaiceratops	0	1	0	0	0	0	0	0
Murusraptor	0	1	0	0	0	0	0	0
Mussaurus	0	0	0	0	0	0	2	0
Muttaburrasaurus	0	0	1	0	0	0	0	0
Muyelensaurus	0	1	0	0	0	0	0	0
Mymoorapelta	0	0	0	2	0	0	0	0
Mystiornis	0	0	1	0	0	0	0	0
Naashoibitosaurus	0	1	0	0	0	0	0	0
Nambalia	0	0	0	0	0	0	1	0
Nanantius	0	0	2	0	0	0	0	0
Nankangia	0	1	0	0	0	0	0	0
Nanosaurus	0	0	0	6	0	0	0	0
Nanotyrannus	0	3	0	0	0	0	0	0
Nanshiungosaurus	0	1	1	0	0	0	0	0
Nanuqsaurus	0	1	0	0	0	0	0	0
Nanyangosaurus	0	1	0	0	0	0	0	0
Narambuenatitan	0	1	0	0	0	0	0	0
Nasutoceratops	0	1	0	0	0	0	0	0
Nebulasaurus	0	0	0	0	1	0	0	0
Nedcolbertia	0	0	2	0	0	0	0	0
Neimongosaurus	0	2	0	0	0	0	0	0
Nemegtomaia	0	3	0	0	0	0	0	0
Nemegtosaurus	0	3	0	0	0	0	0	0
Neogaeornis	0	1	0	0	0	0	0	0
Neovenator	0	0	2	0	0	0	0	0
Neuquenornis	0	2	0	0	0	0	0	0
Neuquenraptor	0	1	0	0	0	0	0	0
Neuquensaurus	0	10	0	0	0	0	0	0
Nigersaurus	0	0	1	0	0	0	0	0
Ningyuansaurus	0	0	1	0	0	0	0	0
Niobrarasaurus	0	2	0	0	0	0	0	0
Nipponosaurus	0	1	0	0	0	0	0	0
Noasaurus	0	1	0	0	0	0	0	0
Nodocephalosaurus	0	6	0	0	0	0	0	0
Nodosaurus	0	2	0	0	0	0	0	0
Noguerornis	0	0	1	0	0	0	0	0
Nomingia	0	1	0	0	0	0	0	0
Nopcsaspondylus	0	1	0	0	0	0	0	0
Normanniasaurus	0	0	2	0	0	0	0	0
Nothronychus	0	2	0	0	0	0	0	0
Notocolossus	0	2	0	0	0	0	0	0
Notohypsilophodon	0	1	0	0	0	0	0	0
Nqwebasaurus	0	0	1	0	0	0	0	0
Nuthetes	0	0	6	0	0	0	0	0
Nyasasaurus	0	0	0	0	0	0	0	2
Oena	0	1	0	0	0	0	0	0
Ohmdenosaurus	0	0	0	0	0	1	0	0
Ojoraptorsaurus	0	1	0	0	0	0	0	0
Olorotitan	0	1	0	0	0	0	0	0
Omeisaurus	0	0	0	4	2	0	0	0
Omnivoropteryx	0	0	1	0	0	0	0	0
Oohkotokia	0	4	0	0	0	0	0	0
Opisthocoelicaudia	0	1	0	0	0	0	0	0
Oplosaurus	0	0	1	0	0	0	0	0
Orkoraptor	0	1	0	0	0	0	0	0
Ornithoides	0	1	0	0	0	0	0	0
Ornitholestes	0	0	0	4	0	0	0	0
Ornithomimus	0	34	0	0	0	0	0	0
Ornithopsis	0	0	2	2	1	0	0	0
Orodromeus	0	9	0	0	0	0	0	0
Oryctodromeus	0	1	0	0	0	0	0	0
Ostafrikasaurus	0	0	0	1	0	0	0	0
Ostromia	0	0	0	1	0	0	0	0
Othnielosaurus	0	0	0	8	0	0	0	0
Ouranosaurus	0	0	3	0	0	0	0	0
Overosaurus	0	1	0	0	0	0	0	0
Oviraptor	0	3	0	0	0	0	0	0
Ovoraptor	0	1	0	0	0	0	0	0
Owenodon	0	0	6	1	0	0	0	0
Pachycephalosaurus	0	30	0	0	0	0	0	0
Pachyrhinosaurus	0	13	0	0	0	0	0	0
Padillasaurus	0	0	1	0	0	0	0	0
Pakisaurus	0	4	0	0	0	0	0	0
Palaeotringa	0	2	0	0	0	0	0	0
Palintropus	0	1	0	0	0	0	0	0
Paludititan	0	1	0	0	0	0	0	0
Pampadromaeus	0	0	0	0	0	0	2	0
Pamparaptor	0	1	0	0	0	0	0	0
Panamericansaurus	0	1	0	0	0	0	0	0
Pandoravenator	0	0	0	1	0	0	0	0
Panguraptor	0	0	0	0	0	1	0	0
Panoplosaurus	0	6	0	0	0	0	0	0
Panphagia	0	0	0	0	0	0	1	0
Pantydraco	0	0	0	0	0	0	1	0
Parabohaiornis	0	0	1	0	0	0	0	0
Parahesperornis	0	3	0	0	0	0	0	0
Parahongshanornis	0	0	1	0	0	0	0	0
Paralititan	0	1	0	0	0	0	0	0
Paranthodon	0	0	1	0	0	0	0	0
Parapengornis	0	0	2	0	0	0	0	0
Paraprotopteryx	0	0	1	0	0	0	0	0
Pararhabdodon	0	3	0	0	0	0	0	0
Parasaurolophus	0	17	0	0	0	0	0	0
Parksosaurus	0	2	0	0	0	0	0	0
Paronychodon	0	100	0	0	0	0	0	0
Parvavis	0	1	0	0	0	0	0	0
Parvicursor	0	1	0	0	0	0	0	0
Pasquiaornis	0	2	0	0	0	0	0	0
Patagonykus	0	1	0	0	0	0	0	0
Patagopteryx	0	1	0	0	0	0	0	0
Patagosaurus	0	0	0	0	4	0	0	0
Patagotitan	0	0	1	0	0	0	0	0
Pawpawsaurus	0	0	1	0	0	0	0	0
Pectinodon	0	8	0	0	0	0	0	0
Pedopenna	0	0	0	0	1	0	0	0
Pegomastax	0	0	0	0	0	1	0	0
Pelecanimimus	0	0	1	0	0	0	0	0
Pellegrinisaurus	0	1	0	0	0	0	0	0
Peloroplites	0	0	1	0	0	0	0	0
Pelorosaurus	0	0	2	0	0	0	0	0
Penelopognathus	0	0	1	0	0	0	0	0
Pengornis	0	0	1	0	0	0	0	0
Pentaceratops	0	15	0	0	0	0	0	0
Petrobrasaurus	0	1	0	0	0	0	0	0
Philovenator	0	1	0	0	0	0	0	0
Phuwiangosaurus	0	0	12	0	0	0	0	0
Piatnitzkysaurus	0	0	0	0	1	0	0	0
Pilmatueia	0	0	1	0	0	0	0	0
Pinacosaurus	0	16	0	0	0	0	0	0
Pisanosaurus	0	0	0	0	0	0	1	0
Piscivoravis	0	0	1	0	0	0	0	0
Piscivorenantiornis	0	0	1	0	0	0	0	0
Pitekunsaurus	0	1	0	0	0	0	0	0
Piveteausaurus	0	0	0	0	2	0	0	0
Planicoxa	0	0	1	0	0	0	0	0
Plateosauravus	0	0	0	0	0	0	2	0
Plateosaurus	0	0	0	0	0	0	31	0
Platyceratops	0	1	0	0	0	0	0	0
Platypelta	0	7	0	0	0	0	0	0
Plesiohadros	0	1	0	0	0	0	0	0
Pneumatoraptor	0	1	0	0	0	0	0	0
Poekilopleuron	0	0	0	0	1	0	0	0
Polacanthus	0	0	14	0	0	0	0	0
Polarornis	0	1	0	0	0	0	0	0
Potamornis	0	1	0	0	0	0	0	0
Powellvenator	0	0	0	0	0	0	1	0
Pradhania	0	0	0	0	0	1	0	0
Prenocephale	0	11	0	0	0	0	0	0
Prenoceratops	0	2	0	0	0	0	0	0
Proa	0	0	1	0	0	0	0	0
Probactrosaurus	0	0	2	0	0	0	0	0
Probrachylophosaurus	0	1	0	0	0	0	0	0
Proceratosaurus	0	0	0	0	1	0	0	0
Procerosaurus	0	0	0	0	0	0	0	1
Procompsognathus	0	0	0	0	0	0	1	0
Propanoplosaurus	0	0	1	0	0	0	0	0
Proplanicoxa	0	0	1	0	0	0	0	0
Prosaurolophus	0	12	0	0	0	0	0	0
Protarchaeopteryx	0	0	1	0	0	0	0	0
Protoavis	0	0	0	0	0	0	1	0
Protoceratops	0	34	0	0	0	0	0	0
Protohadros	0	1	0	0	0	0	0	0
Protopteryx	0	0	2	0	0	0	0	0
Psittacosaurus	0	0	42	0	0	0	0	0
Pterygornis	0	0	1	0	0	0	0	0
Puertasaurus	0	1	0	0	0	0	0	0
Pulanesaura	0	0	0	0	0	1	0	0
Pycnonemosaurus	0	1	0	0	0	0	0	0
Pyroraptor	0	3	0	0	0	0	0	0
Qantassaurus	0	0	1	0	0	0	0	0
Qiaowanlong	0	0	1	0	0	0	0	0
Qiliania	0	0	1	0	0	0	0	0
Quaesitosaurus	0	1	0	0	0	0	0	0
Quetecsaurus	0	1	0	0	0	0	0	0
Quilmesaurus	0	1	0	0	0	0	0	0
Rahiolisaurus	0	1	0	0	0	0	0	0
Rahonavis	0	2	0	0	0	0	0	0
Rajasaurus	0	1	0	0	0	0	0	0
Rapator	0	1	0	0	0	0	0	0
Rapaxavis	0	0	1	0	0	0	0	0
Rapetosaurus	0	2	0	0	0	0	0	0
Raptorex	0	0	1	0	0	0	0	0
Ratchasimasaurus	0	0	1	0	0	0	0	0
Rayososaurus	0	1	0	0	0	0	0	0
Rebbachisaurus	0	2	0	0	0	0	0	0
Regaliceratops	0	1	0	0	0	0	0	0
Rhabdodon	0	38	0	0	0	0	0	0
Rhoetosaurus	0	0	0	0	1	0	0	0
Riabininohadros	0	1	0	0	0	0	0	0
Richardoestesia	0	1	0	0	0	0	0	0
Rinconsaurus	0	1	0	0	0	0	0	0
Riojasaurus	0	0	0	0	0	0	2	0
Rocasaurus	0	2	0	0	0	0	0	0
Rubeosaurus	0	2	0	0	0	0	0	0
Ruehleia	0	0	0	0	0	0	1	0
Rugops	0	1	0	0	0	0	0	0
Ruyangosaurus	0	1	0	0	0	0	0	0
Sahaliyania	0	1	0	0	0	0	0	0
Saichania	0	3	0	0	0	0	0	0
Salfitichnus	0	1	0	0	0	0	0	0
Saltasaurus	0	1	0	0	0	0	0	0
Samrukia	0	1	0	0	0	0	0	0
Sanjuansaurus	0	0	0	0	0	0	1	0
Sanpasaurus	0	0	0	0	0	3	0	0
Santanaraptor	0	0	1	0	0	0	0	0
Sapeornis	0	0	6	0	0	0	0	0
Sarahsaurus	0	0	0	0	0	2	0	0
Sarcolestes	0	0	0	0	2	0	0	0
Sarcosaurus	0	0	0	0	0	2	0	0
Sarmientosaurus	0	1	0	0	0	0	0	0
Saturnalia	0	0	0	0	0	0	3	0
Saurolophus	0	21	0	0	0	0	0	0
Sauroniops	0	1	0	0	0	0	0	0
Sauropelta	0	0	32	0	0	0	0	0
Saurophaganax	0	0	0	1	0	0	0	0
Sauroposeidon	0	0	4	0	0	0	0	0
Saurornithoides	0	7	0	0	0	0	0	0
Saurornitholestes	0	141	0	0	0	0	0	0
Savannasaurus	0	1	0	0	0	0	0	0
Sazavis	0	2	0	0	0	0	0	0
Scansoriopteryx	0	0	1	0	0	0	0	0
Scelidosaurus	0	0	0	0	0	5	0	0
Schizooura	0	0	1	0	0	0	0	0
Scipionyx	0	0	1	0	0	0	0	0
Sciurumimus	0	0	0	1	0	0	0	0
Scolosaurus	0	4	0	0	0	0	0	0
Scutellosaurus	0	0	0	0	0	3	0	0
Secernosaurus	0	3	0	0	0	0	0	0
Segisaurus	0	0	0	0	0	2	0	0
Segnosaurus	0	2	0	0	0	0	0	0
Seitaad	0	0	0	0	0	1	0	0
Serendipaceratops	0	0	1	0	0	0	0	0
Serikornis	0	0	0	1	0	0	0	0
Shamosaurus	0	0	2	0	0	0	0	0
Shantungosaurus	0	3	0	0	0	0	0	0
Shanweiniao	0	0	1	0	0	0	0	0
Shanyangosaurus	0	1	0	0	0	0	0	0
Shaochilong	0	1	0	0	0	0	0	0
Shengjingornis	0	0	1	0	0	0	0	0
Shenzhouraptor	0	0	1	0	0	0	0	0
Shenzhousaurus	0	0	1	0	0	0	0	0
Shixinggia	0	1	0	0	0	0	0	0
Shuangbaisaurus	0	0	0	0	0	1	0	0
Shuangmiaosaurus	0	0	1	0	0	0	0	0
Shunosaurus	0	0	0	1	1	0	0	0
Shuvuuia	0	3	0	0	0	0	0	0
Siamotyrannus	0	0	1	0	0	0	0	0
Siats	0	1	0	0	0	0	0	0
Sibirotitan	0	0	3	0	0	0	0	0
Silvisaurus	0	0	1	0	0	0	0	0
Similicaudipteryx	0	0	1	0	0	0	0	0
Sinocalliopteryx	0	0	1	0	0	0	0	0
Sinoceratops	0	1	0	0	0	0	0	0
Sinornis	0	0	1	0	0	0	0	0
Sinornithoides	0	0	1	0	0	0	0	0
Sinornithomimus	0	1	0	0	0	0	0	0
Sinornithosaurus	0	0	2	0	0	0	0	0
Sinosauropteryx	0	0	3	0	0	0	0	0
Sinosaurus	0	0	0	0	0	11	0	0
Sinotyrannus	0	0	1	0	0	0	0	0
Sinovenator	0	0	2	0	0	0	0	0
Sinraptor	0	0	0	2	0	0	0	0
Sinusonasus	0	0	1	0	0	0	0	0
Sirindhorna	0	0	1	0	0	0	0	0
Skorpiovenator	0	1	0	0	0	0	0	0
Songlingornis	0	0	1	0	0	0	0	0
Sonidosaurus	0	1	0	0	0	0	0	0
Soriatitan	0	0	1	0	0	0	0	0
Soroavisaurus	0	1	0	0	0	0	0	0
Spiclypeus	0	1	0	0	0	0	0	0
Spinops	0	1	0	0	0	0	0	0
Spinosaurus	0	12	4	0	0	0	0	0
Spinostropheus	0	0	1	0	0	0	0	0
Staurikosaurus	0	0	0	0	0	0	1	0
Stegoceras	0	41	0	0	0	0	0	0
Stegosaurus	0	0	2	71	0	0	0	0
Stenopelix	0	0	1	0	0	0	0	0
Stokesosaurus	0	0	0	4	0	0	0	0
Stormbergia	0	0	0	0	0	4	0	0
Struthiomimus	0	17	0	0	0	0	0	0
Struthiosaurus	0	19	0	0	0	0	0	0
Styracosaurus	0	10	0	0	0	0	0	0
Suchomimus	0	0	2	0	0	0	0	0
Sulaimanisaurus	0	3	0	0	0	0	0	0
Sulcavis	0	0	1	0	0	0	0	0
Supersaurus	0	0	0	6	0	0	0	0
Suuwassea	0	0	0	1	0	0	0	0
Suzhousaurus	0	0	2	0	0	0	0	0
Syntarsus	0	0	0	0	0	3	0	0
Talarurus	0	2	0	0	0	0	0	0
Talenkauen	0	1	0	0	0	0	0	0
Talos	0	1	0	0	0	0	0	0
Tangvayosaurus	0	0	2	0	0	0	0	0
Tanius	0	4	0	0	0	0	0	0
Tanycolagreus	0	0	0	3	0	0	0	0
Tapinosaurus	0	0	0	1	0	0	0	0
Taponichnus	0	1	0	0	0	0	0	0
Tapuiasaurus	0	0	1	0	0	0	0	0
Tarascosaurus	0	1	0	0	0	0	0	0
Tarbosaurus	0	46	0	0	0	0	0	0
Tarchia	0	9	0	0	0	0	0	0
Tastavinsaurus	0	0	2	0	0	0	0	0
Tatankacephalus	0	0	1	0	0	0	0	0
Tataouinea	0	0	1	0	0	0	0	0
Taurovenator	0	1	0	0	0	0	0	0
Tawa	0	0	0	0	0	0	3	0
Tazoudasaurus	0	0	0	0	0	2	0	0
Tehuelchesaurus	0	0	0	1	0	0	0	0
Telmatornis	0	3	0	0	0	0	0	0
Telmatosaurus	0	11	0	0	0	0	0	0
Telosichnus	0	1	0	0	0	0	0	0
Tendaguria	0	0	0	1	0	0	0	0
Tengrisaurus	0	0	1	0	0	0	0	0
Tenontosaurus	0	1	74	0	0	0	0	0
Teratophoneus	0	2	0	0	0	0	0	0
Tethyshadros	0	1	0	0	0	0	0	0
Teviornis	0	1	0	0	0	0	0	0
Texasetes	0	0	1	0	0	0	0	0
Thecodontosaurus	0	0	0	0	0	0	2	0
Theiophytalia	0	0	1	0	0	0	0	0
Therizinosaurus	0	2	0	0	0	0	0	0
Thescelosaurus	0	49	0	0	0	0	0	0
Thotobolosaurus	0	0	0	0	0	0	1	0
Tiantaisaurus	0	0	1	0	0	0	0	0
Tianyuornis	0	0	1	0	0	0	0	0
Tianyuraptor	0	0	1	0	0	0	0	0
Tianzhenosaurus	0	1	0	0	0	0	0	0
Tienshanosaurus	0	0	0	2	0	0	0	0
Timimus	0	0	1	0	0	0	0	0
Tingmiatornis	0	1	0	0	0	0	0	0
Titanoceratops	0	1	0	0	0	0	0	0
Titanosaurus	0	21	0	0	0	0	0	0
Tochisaurus	0	1	0	0	0	0	0	0
Tongtianlong	0	1	0	0	0	0	0	0
Tornieria	0	0	0	8	0	0	0	0
Torosaurus	0	8	0	0	0	0	0	0
Torotix	0	1	0	0	0	0	0	0
Torvosaurus	0	0	0	16	0	0	0	0
Tototlmimus	0	1	0	0	0	0	0	0
Tratayenia	0	1	0	0	0	0	0	0
Traukutitan	0	1	0	0	0	0	0	0
Triceratops	0	138	0	0	0	0	0	0
Trigonosaurus	0	2	0	0	0	0	0	0
Trinisaura	0	1	0	0	0	0	0	0
Triunfosaurus	0	0	1	0	0	0	0	0
Troodon	0	116	0	0	0	0	0	0
Tsaagan	0	1	0	0	0	0	0	0
Tsagantegia	0	2	0	0	0	0	0	0
Tsintaosaurus	0	5	0	0	0	0	0	0
Tugulusaurus	0	0	1	0	0	0	0	0
Tuojiangosaurus	0	0	0	1	0	0	0	0
Turanoceratops	0	6	0	0	0	0	0	0
Tylocephale	0	1	0	0	0	0	0	0
Tyrannosaurus	0	77	0	0	0	0	0	0
Tyrannotitan	0	0	3	0	0	0	0	0
Uberabatitan	0	1	0	0	0	0	0	0
Udanoceratops	0	2	0	0	0	0	0	0
Ugrunaaluk	0	1	0	0	0	0	0	0
Unaysaurus	0	0	0	0	0	0	1	0
Unenlagia	0	2	0	0	0	0	0	0
Unescoceratops	0	1	0	0	0	0	0	0
Unquillosaurus	0	1	0	0	0	0	0	0
Urbacodon	0	1	0	0	0	0	0	0
Utahceratops	0	1	0	0	0	0	0	0
Utahraptor	0	0	2	0	0	0	0	0
Uteodon	0	0	0	1	0	0	0	0
Vagaceratops	0	2	0	0	0	0	0	0
Vahiny	0	2	0	0	0	0	0	0
Valdosaurus	0	0	8	0	0	0	0	0
Variraptor	0	3	0	0	0	0	0	0
Vegavis	0	1	0	0	0	0	0	0
Velafrons	0	1	0	0	0	0	0	0
Velocipes	0	0	0	0	0	0	1	0
Velociraptor	0	17	0	0	0	0	0	0
Velocisaurus	0	2	0	0	0	0	0	0
Venenosaurus	0	0	1	0	0	0	0	0
Vescornis	0	0	1	0	0	0	0	0
Viavenator	0	1	0	0	0	0	0	0
Vitakridrinda	0	5	0	0	0	0	0	0
Volkheimeria	0	0	0	0	1	0	0	0
Vorona	0	5	0	0	0	0	0	0
Vouivria	0	0	0	1	0	0	0	0
Vulcanodon	0	0	0	0	0	1	0	0
Wannanosaurus	0	1	0	0	0	0	0	0
Wendiceratops	0	1	0	0	0	0	0	0
Wiehenvenator	0	0	0	0	1	0	0	0
Wintonotitan	0	2	0	0	0	0	0	0
Wulagasaurus	0	1	0	0	0	0	0	0
Wulatelong	0	1	0	0	0	0	0	0
Xenoceratops	0	1	0	0	0	0	0	0
Xenoposeidon	0	0	1	0	0	0	0	0
Xenotarsosaurus	0	1	0	0	0	0	0	0
Xiangornis	0	0	1	0	0	0	0	0
Xianshanosaurus	0	1	0	0	0	0	0	0
Xiaosaurus	0	0	0	0	1	0	0	0
Xinghaiornis	0	0	1	0	0	0	0	0
Xingxiulong	0	0	0	0	0	1	0	0
Xinjiangovenator	0	0	1	0	0	0	0	0
Xinjiangtitan	0	0	0	0	1	0	0	0
Xiongguanlong	0	0	1	0	0	0	0	0
Xixianykus	0	1	0	0	0	0	0	0
Xixiasaurus	0	1	0	0	0	0	0	0
Xixiposaurus	0	0	0	0	0	1	0	0
Xuwulong	0	0	1	0	0	0	0	0
Yacoraitichnus	0	1	0	0	0	0	0	0
Yamaceratops	0	1	0	0	0	0	0	0
Yandangornis	0	1	0	0	0	0	0	0
Yandusaurus	0	0	0	1	0	0	0	0
Yangchuanosaurus	0	0	0	2	1	0	0	0
Yanornis	0	0	4	0	0	0	0	0
Yaverlandia	0	0	1	0	0	0	0	0
Yezosaurus	0	1	0	0	0	0	0	0
Yimenosaurus	0	0	0	0	0	1	0	0
Yingshanosaurus	0	0	0	1	0	0	0	0
Yinlong	0	0	0	1	0	0	0	0
Yixianornis	0	0	1	0	0	0	0	0
Yixianosaurus	0	0	1	0	0	0	0	0
Yuanjiawaornis	0	0	1	0	0	0	0	0
Yumenornis	0	0	1	0	0	0	0	0
Yunganglong	0	1	0	0	0	0	0	0
Yungavolucris	0	1	0	0	0	0	0	0
Yunmenglong	0	0	1	0	0	0	0	0
Yunnanosaurus	0	0	0	0	0	16	0	0
Yurgovuchia	0	0	1	0	0	0	0	0
Yutyrannus	0	0	1	0	0	0	0	0
Zalmoxes	0	30	0	0	0	0	0	0
Zanabazar	0	1	0	0	0	0	0	0
Zapalasaurus	0	0	2	0	0	0	0	0
Zapsalis	0	5	0	0	0	0	0	0
Zaraapelta	0	1	0	0	0	0	0	0
Zby	0	0	0	1	0	0	0	0
Zephyrosaurus	0	0	4	0	0	0	0	0
Zhanghenglong	0	1	0	0	0	0	0	0
Zhejiangosaurus	0	1	0	0	0	0	0	0
Zhenyuanlong	0	0	1	0	0	0	0	0
Zhongjianornis	0	0	1	0	0	0	0	0
Zhongornis	0	0	1	0	0	0	0	0
Zhongyuanosaurus	0	1	0	0	0	0	0	0
Zhouornis	0	0	2	0	0	0	0	0
Zhuchengceratops	0	1	0	0	0	0	0	0
Zhuchengosaurus	0	1	0	0	0	0	0	0
Zhuchengtitan	0	1	0	0	0	0	0	0
Zhuchengtyrannus	0	1	0	0	0	0	0	0
Zhyraornis	0	1	0	0	0	0	0	0
Ziapelta	0	1	0	0	0	0	0	0
Zuniceratops	0	3	0	0	0	0	0	0
Zuolong	0	0	0	1	0	0	0	0
Zuoyunlong	0	1	0	0	0	0	0	0
Zupaysaurus	0	0	0	0	0	0	1	0
Zuul	0	1	0	0	0	0	0	0
